## Interface:11200
## Title: !LibCompatibility
## Notes: Compability lib, which emulates some structures and functions from other WoW version - to faster moving addons to 1.12 vanilla WoW
## Author: Shuraken

LibCompatibility.lua
LibCompatibility.xml
